TestCreationAction 1639216079493 GameTest.java ADD void testCalculateScoreWithSpare()/2 METHOD ADD void testCalculateScoreWithSpare()/2 METHOD
TestCreationAction 1639216086005 GameTest.java RENAME testCalculateScoreWithSpare()/2=>void testCalculateScoreWithStirke() METHOD RENAME testCalculateScoreWithSpare()/2=>void testCalculateScoreWithStirke() METHOD
TestCreationAction 1639216113520 FrameTest.java ADD void testFrameIsSpare()/2 METHOD ADD void testFrameIsSpare()/2 METHOD
TestCreationAction 1639216122045 FrameTest.java RENAME testFrameIsSpare()/2=>void testFrameIsStrike() METHOD RENAME testFrameIsSpare()/2=>void testFrameIsStrike() METHOD
TestCreationAction 1639216157080 FrameTest.java CHANGE FrameTest.java CLASS CHANGE FrameTest.java CLASS
EditAction 1639216157081 FrameTest.java 2467 10 36 6
TestCreationAction 1639216157096 GameTest.java CHANGE GameTest.java CLASS CHANGE GameTest.java CLASS
EditAction 1639216157097 GameTest.java 1725 3 37 3
EditAction 1639216157146 GameTest.java 1725 3 37 3
TestFailureAction 1639216157788 FrameTest.java FAIL
EditAction 1639216158011 GameTest.java 1725 3 37 3
CodeEditingAction 1639216170748 Frame.java RENAME isStrike()=><initializer /1> null
CodeEditingAction 1639216172254 Frame.java RENAME <initializer /1>=>boolean isStrike() METHOD
CodeEditingAction 1639216194773 Frame.java CHANGE Frame.java CLASS
EditAction 1639216194774 Frame.java 2179 8 13 0
TestPassAction 1639216195290 FrameTest.java OK
EditAction 1639216195643 Frame.java 2179 8 13 0
TestCreationAction 1639216241692 FrameTest.java ADD void testFrameIsStrike()/2 METHOD ADD void testFrameIsStrike()/2 METHOD
TestCreationAction 1639216259215 FrameTest.java RENAME testFrameIsStrike()/2=>void testFrameIsNotStrike() METHOD RENAME testFrameIsStrike()/2=>void testFrameIsNotStrike() METHOD
TestCreationAction 1639216269611 FrameTest.java CHANGE FrameTest.java CLASS CHANGE FrameTest.java CLASS
EditAction 1639216269612 FrameTest.java 2673 11 40 7
TestPassAction 1639216270097 FrameTest.java OK
TestCreationAction 1639216316694 GameTest.java ADD void testCalculateScoreWithSpare()/2 METHOD ADD void testCalculateScoreWithSpare()/2 METHOD
TestCreationAction 1639216322204 GameTest.java RENAME testCalculateScoreWithSpare()/2=>void testCalculateScoreWithSTRIKE() METHOD RENAME testCalculateScoreWithSpare()/2=>void testCalculateScoreWithSTRIKE() METHOD
TestCreationAction 1639216326213 GameTest.java RENAME testCalculateScoreWithSTRIKE()=>void testCalculateScoreWithStrike() METHOD RENAME testCalculateScoreWithSTRIKE()=>void testCalculateScoreWithStrike() METHOD
TestCreationAction 1639216423416 GameTest.java CHANGE GameTest.java CLASS CHANGE GameTest.java CLASS
EditAction 1639216423416 GameTest.java 2226 4 49 4
EditAction 1639216423450 GameTest.java 2226 4 49 4
TestFailureAction 1639216423933 GameTest.java FAIL
EditAction 1639216424155 GameTest.java 2226 4 49 4
CodeEditingAction 1639216526988 Game.java CHANGE Game.java CLASS
EditAction 1639216527154 Game.java 2143 8 7 0
EditAction 1639216527754 Game.java 2143 8 7 0
TestFailureAction 1639216529905 GameTest.java FAIL
TestFailureAction 1639216533356 GameTest.java FAIL
EditAction 1639216607696 Game.java 2143 8 7 0
EditAction 1639216608774 Game.java 2143 8 7 0
EditAction 1639216608779 Game.java 2143 8 7 0
EditAction 1639216608886 Game.java 2143 8 7 0
EditAction 1639216612074 Game.java 2143 8 7 0
EditAction 1639216612079 Game.java 2143 8 7 0
EditAction 1639216612236 Game.java 2143 8 7 0
EditAction 1639216621182 Game.java 2143 8 7 0
EditAction 1639216621187 Game.java 2143 8 7 0
EditAction 1639216621293 Game.java 2143 8 7 0
EditAction 1639216624414 Game.java 2143 8 7 0
EditAction 1639216624420 Game.java 2143 8 7 0
EditAction 1639216624425 Game.java 2143 8 7 0
EditAction 1639216624430 Game.java 2143 8 7 0
EditAction 1639216624434 Game.java 2143 8 7 0
EditAction 1639216624448 Game.java 2143 8 7 0
EditAction 1639216624554 Game.java 2143 8 7 0
EditAction 1639216625603 Game.java 2143 8 7 0
EditAction 1639216625608 Game.java 2143 8 7 0
EditAction 1639216625715 Game.java 2143 8 7 0
EditAction 1639216626358 Game.java 2143 8 7 0
EditAction 1639216626363 Game.java 2143 8 7 0
EditAction 1639216626721 Game.java 2143 8 7 0
EditAction 1639216627864 Game.java 2143 8 7 0
EditAction 1639216627869 Game.java 2143 8 7 0
EditAction 1639216627976 Game.java 2143 8 7 0
EditAction 1639216630941 Game.java 2143 8 7 0
EditAction 1639216630946 Game.java 2143 8 7 0
EditAction 1639216631102 Game.java 2143 8 7 0
EditAction 1639216632478 Game.java 2143 8 7 0
EditAction 1639216632483 Game.java 2143 8 7 0
EditAction 1639216632639 Game.java 2143 8 7 0
EditAction 1639216635231 Game.java 2143 8 7 0
EditAction 1639216635237 Game.java 2143 8 7 0
EditAction 1639216635242 Game.java 2143 8 7 0
EditAction 1639216635248 Game.java 2143 8 7 0
EditAction 1639216635254 Game.java 2143 8 7 0
EditAction 1639216635260 Game.java 2143 8 7 0
EditAction 1639216635266 Game.java 2143 8 7 0
EditAction 1639216635272 Game.java 2143 8 7 0
EditAction 1639216635278 Game.java 2143 8 7 0
EditAction 1639216635715 Game.java 2143 8 7 0
EditAction 1639216658135 Game.java 2143 8 7 0
EditAction 1639216658142 Game.java 2143 8 7 0
EditAction 1639216658150 Game.java 2143 8 7 0
EditAction 1639216658156 Game.java 2143 8 7 0
EditAction 1639216658163 Game.java 2143 8 7 0
EditAction 1639216658169 Game.java 2143 8 7 0
EditAction 1639216658175 Game.java 2143 8 7 0
EditAction 1639216658182 Game.java 2143 8 7 0
EditAction 1639216658188 Game.java 2143 8 7 0
EditAction 1639216658311 Game.java 2143 8 7 0
EditAction 1639216662849 Game.java 2143 8 7 0
EditAction 1639216662854 Game.java 2143 8 7 0
EditAction 1639216662859 Game.java 2143 8 7 0
EditAction 1639216662865 Game.java 2143 8 7 0
EditAction 1639216662870 Game.java 2143 8 7 0
EditAction 1639216662875 Game.java 2143 8 7 0
EditAction 1639216662879 Game.java 2143 8 7 0
EditAction 1639216662892 Game.java 2143 8 7 0
EditAction 1639216662999 Game.java 2143 8 7 0
EditAction 1639216663603 Game.java 2143 8 7 0
EditAction 1639216663608 Game.java 2143 8 7 0
EditAction 1639216663613 Game.java 2143 8 7 0
EditAction 1639216663618 Game.java 2143 8 7 0
EditAction 1639216663623 Game.java 2143 8 7 0
EditAction 1639216663636 Game.java 2143 8 7 0
EditAction 1639216664006 Game.java 2143 8 7 0
EditAction 1639216664419 Game.java 2143 8 7 0
EditAction 1639216664425 Game.java 2143 8 7 0
EditAction 1639216664430 Game.java 2143 8 7 0
EditAction 1639216664435 Game.java 2143 8 7 0
EditAction 1639216664448 Game.java 2143 8 7 0
EditAction 1639216664464 Game.java 2143 8 7 0
EditAction 1639216664949 Game.java 2143 8 7 0
EditAction 1639216664956 Game.java 2143 8 7 0
EditAction 1639216664961 Game.java 2143 8 7 0
EditAction 1639216664966 Game.java 2143 8 7 0
EditAction 1639216664971 Game.java 2143 8 7 0
EditAction 1639216664984 Game.java 2143 8 7 0
EditAction 1639216665140 Game.java 2143 8 7 0
EditAction 1639216665917 Game.java 2143 8 7 0
EditAction 1639216665922 Game.java 2143 8 7 0
EditAction 1639216665926 Game.java 2143 8 7 0
EditAction 1639216665931 Game.java 2143 8 7 0
EditAction 1639216665936 Game.java 2143 8 7 0
EditAction 1639216665949 Game.java 2143 8 7 0
EditAction 1639216666147 Game.java 2143 8 7 0
EditAction 1639216666455 Game.java 2143 8 7 0
EditAction 1639216666460 Game.java 2143 8 7 0
EditAction 1639216666465 Game.java 2143 8 7 0
EditAction 1639216666470 Game.java 2143 8 7 0
EditAction 1639216666474 Game.java 2143 8 7 0
EditAction 1639216666487 Game.java 2143 8 7 0
EditAction 1639216667063 Game.java 2143 8 7 0
EditAction 1639216667068 Game.java 2143 8 7 0
EditAction 1639216667073 Game.java 2143 8 7 0
EditAction 1639216667078 Game.java 2143 8 7 0
EditAction 1639216667082 Game.java 2143 8 7 0
EditAction 1639216667095 Game.java 2143 8 7 0
EditAction 1639216667202 Game.java 2143 8 7 0
EditAction 1639216667673 Game.java 2143 8 7 0
EditAction 1639216667678 Game.java 2143 8 7 0
EditAction 1639216667684 Game.java 2143 8 7 0
EditAction 1639216667688 Game.java 2143 8 7 0
EditAction 1639216667702 Game.java 2143 8 7 0
CodeEditingAction 1639216684147 Frame.java ADD int frames FIELD
CodeEditingAction 1639216685153 Frame.java ADD int getFirstThrow() METHOD
CodeEditingAction 1639216709498 Game.java CHANGE Game.java CLASS
EditAction 1639216709498 Game.java 2206 8 7 0
EditAction 1639216709529 Game.java 2206 8 7 0
TestFailureAction 1639216710227 GameTest.java FAIL
EditAction 1639216710466 Game.java 2206 8 7 0
CodeEditingAction 1639216733787 Game.java CHANGE Game.java CLASS
EditAction 1639216733788 Game.java 2143 8 7 0
EditAction 1639216733816 Game.java 2143 8 7 0
TestPassAction 1639216734356 GameTest.java OK
EditAction 1639216734535 Game.java 2143 8 7 0
TestCreationAction 1639216852144 GameTest.java ADD void testCalculateScoreWithStrike()/2 METHOD ADD void testCalculateScoreWithStrike()/2 METHOD
TestCreationAction 1639216865162 GameTest.java RENAME testCalculateScoreWithStrike()/2=>void testCalculateScoreWithS() METHOD RENAME testCalculateScoreWithStrike()/2=>void testCalculateScoreWithS() METHOD
TestCreationAction 1639216867169 GameTest.java RENAME testCalculateScoreWithS()=>void testCalculateScoreWithStrike()/2 METHOD RENAME testCalculateScoreWithS()=>void testCalculateScoreWithStrike()/2 METHOD
TestCreationAction 1639216870180 GameTest.java RENAME testCalculateScoreWithStrike()/2=>void testCalculateScoreWithStrikeFolowed() METHOD RENAME testCalculateScoreWithStrike()/2=>void testCalculateScoreWithStrikeFolowed() METHOD
TestCreationAction 1639216871688 GameTest.java RENAME testCalculateScoreWithStrikeFolowed()=>void testCalculateScoreWithStrikeFolowedBy() METHOD RENAME testCalculateScoreWithStrikeFolowed()=>void testCalculateScoreWithStrikeFolowedBy() METHOD
TestCreationAction 1639216874197 GameTest.java RENAME testCalculateScoreWithStrikeFolowedBy()=>void testCalculateScoreWithStrikeFolowedBySpare() METHOD RENAME testCalculateScoreWithStrikeFolowedBy()=>void testCalculateScoreWithStrikeFolowedBySpare() METHOD
TestCreationAction 1639216897722 GameTest.java RENAME testCalculateScoreWithStrikeFolowedBySpare()=>void testCalculateScoreWithStrikeFollowedBySpare() METHOD RENAME testCalculateScoreWithStrikeFolowedBySpare()=>void testCalculateScoreWithStrikeFollowedBySpare() METHOD
TestCreationAction 1639216936445 GameTest.java CHANGE GameTest.java CLASS CHANGE GameTest.java CLASS
EditAction 1639216936446 GameTest.java 2753 5 61 5
EditAction 1639216936479 GameTest.java 2753 5 61 5
TestPassAction 1639216936993 GameTest.java OK
EditAction 1639216937305 GameTest.java 2753 5 61 5
TestPassAction 1639216950547 GameTest.java OK
TestCreationAction 1639217117455 GameTest.java ADD void testCalculateScoreWithStrikeFollowedBySpare()/2 METHOD ADD void testCalculateScoreWithStrikeFollowedBySpare()/2 METHOD
TestCreationAction 1639217123964 GameTest.java RENAME testCalculateScoreWithStrikeFollowedBySpare()/2=>void testCalculateScoreWithStrikeFollowedByStrike() METHOD RENAME testCalculateScoreWithStrikeFollowedBySpare()/2=>void testCalculateScoreWithStrikeFollowedByStrike() METHOD
TestCreationAction 1639217170885 GameTest.java CHANGE GameTest.java CLASS CHANGE GameTest.java CLASS
EditAction 1639217170886 GameTest.java 3285 6 73 6
EditAction 1639217170919 GameTest.java 3285 6 73 6
TestFailureAction 1639217171397 GameTest.java FAIL
EditAction 1639217171606 GameTest.java 3285 6 73 6
CodeEditingAction 1639217356495 Game.java CHANGE Game.java CLASS
EditAction 1639217356496 Game.java 2294 8 7 0
EditAction 1639217356525 Game.java 2294 8 7 0
TestFailureAction 1639217357044 GameTest.java FAIL
EditAction 1639217357452 Game.java 2294 8 7 0
CodeEditingAction 1639217396396 Game.java CHANGE Game.java CLASS
EditAction 1639217396397 Game.java 2320 8 7 0
EditAction 1639217396517 Game.java 2320 8 7 0
EditAction 1639217397157 Game.java 2320 8 7 0
TestPassAction 1639217399205 GameTest.java OK
CodeEditingAction 1639217616193 Game.java ADD void setBonusStrike(int) METHOD
CodeEditingAction 1639217616194 Game.java CHANGE Game.java CLASS
EditAction 1639217616195 Game.java 2375 9 8 0
EditAction 1639217616370 Game.java 2375 9 8 0
EditAction 1639217616376 GameTest.java 3285 6 73 6
EditAction 1639217617042 Game.java 2375 9 8 0
TestPassAction 1639217661921 GameTest.java OK
TestPassAction 1639217664137 GameTest.java OK
TestCreationAction 1639217769007 GameTest.java ADD void testCalculateScoreWithStrikeFollowedByStrike()/2 METHOD ADD void testCalculateScoreWithStrikeFollowedByStrike()/2 METHOD
TestCreationAction 1639217800080 GameTest.java RENAME testCalculateScoreWithStrikeFollowedByStrike()/2=>void testCalculateScoreWithSpareFollowedByStrike() METHOD RENAME testCalculateScoreWithStrikeFollowedByStrike()/2=>void testCalculateScoreWithSpareFollowedByStrike() METHOD
TestCreationAction 1639217805091 GameTest.java RENAME testCalculateScoreWithSpareFollowedByStrike()=>void testCalculateScoreWithSpareFollowedBySpare() METHOD RENAME testCalculateScoreWithSpareFollowedByStrike()=>void testCalculateScoreWithSpareFollowedBySpare() METHOD
TestCreationAction 1639217811742 GameTest.java CHANGE GameTest.java CLASS CHANGE GameTest.java CLASS
EditAction 1639217811743 GameTest.java 3810 7 85 7
EditAction 1639217811792 GameTest.java 3810 7 85 7
TestFailureAction 1639217812259 GameTest.java FAIL
EditAction 1639217812576 GameTest.java 3810 7 85 7
TestEditingAction 1639217821805 GameTest.java CHANGE GameTest.java CLASS CHANGE GameTest.java CLASS
EditAction 1639217821805 GameTest.java 3809 7 85 7
EditAction 1639217821835 GameTest.java 3809 7 85 7
TestPassAction 1639217822308 GameTest.java OK
EditAction 1639217822549 GameTest.java 3809 7 85 7
TestEditingAction 1639217857671 GameTest.java RENAME testCalculateScoreWithSpareFollowedBySpare()=>void testCalculateScoreWithMultipe() METHOD RENAME testCalculateScoreWithSpareFollowedBySpare()=>void testCalculateScoreWithMultipe() METHOD
TestEditingAction 1639217860681 GameTest.java RENAME testCalculateScoreWithMultipe()=>void testCalculateScoreWithMultipeSpare() METHOD RENAME testCalculateScoreWithMultipe()=>void testCalculateScoreWithMultipeSpare() METHOD
TestEditingAction 1639217867193 GameTest.java RENAME testCalculateScoreWithStrikeFollowedByStrike()=>void testCalculateScoreWithMultiple() METHOD RENAME testCalculateScoreWithStrikeFollowedByStrike()=>void testCalculateScoreWithMultiple() METHOD
TestEditingAction 1639217870201 GameTest.java RENAME testCalculateScoreWithMultiple()=>void testCalculateScoreWithMultipleStrike() METHOD RENAME testCalculateScoreWithMultiple()=>void testCalculateScoreWithMultipleStrike() METHOD
TestEditingAction 1639217873440 GameTest.java CHANGE GameTest.java CLASS CHANGE GameTest.java CLASS
EditAction 1639217873441 GameTest.java 3793 7 85 7
EditAction 1639217873479 GameTest.java 3793 7 85 7
TestPassAction 1639217873972 GameTest.testCalculateScoreWithMultipleStrike.java OK
EditAction 1639217874292 GameTest.java 3793 7 85 7
TestCreationAction 1639218248522 GameTest.java ADD void testCalculateScoreWithMultipeSpare()/2 METHOD ADD void testCalculateScoreWithMultipeSpare()/2 METHOD
TestCreationAction 1639218255534 GameTest.java RENAME testCalculateScoreWithMultipeSpare()/2=>void testCalculateScoreWithSpare()/2 METHOD RENAME testCalculateScoreWithMultipeSpare()/2=>void testCalculateScoreWithSpare()/2 METHOD
TestCreationAction 1639218259044 GameTest.java RENAME testCalculateScoreWithSpare()/2=>void testCalculateScoreWithSpareAS() METHOD RENAME testCalculateScoreWithSpare()/2=>void testCalculateScoreWithSpareAS() METHOD
TestCreationAction 1639218261553 GameTest.java RENAME testCalculateScoreWithSpareAS()=>void testCalculateScoreWithSpareAsT() METHOD RENAME testCalculateScoreWithSpareAS()=>void testCalculateScoreWithSpareAsT() METHOD
TestCreationAction 1639218263064 GameTest.java RENAME testCalculateScoreWithSpareAsT()=>void testCalculateScoreWithSpareAsThe() METHOD RENAME testCalculateScoreWithSpareAsT()=>void testCalculateScoreWithSpareAsThe() METHOD
TestCreationAction 1639218264571 GameTest.java RENAME testCalculateScoreWithSpareAsThe()=>void testCalculateScoreWithSpareAsTheLast() METHOD RENAME testCalculateScoreWithSpareAsThe()=>void testCalculateScoreWithSpareAsTheLast() METHOD
TestCreationAction 1639218267081 GameTest.java RENAME testCalculateScoreWithSpareAsTheLast()=>void testCalculateScoreWithSpareAsTheLastFrame() METHOD RENAME testCalculateScoreWithSpareAsTheLast()=>void testCalculateScoreWithSpareAsTheLastFrame() METHOD
TestCreationAction 1639218330838 GameTest.java CHANGE GameTest.java CLASS CHANGE GameTest.java CLASS
EditAction 1639218330839 GameTest.java 4332 8 97 8
EditAction 1639218330871 GameTest.java 4332 8 97 8
TestFailureAction 1639218331359 GameTest.java FAIL
EditAction 1639218331559 GameTest.java 4332 8 97 8
CodeEditingAction 1639218639836 Game.java CHANGE Game() METHOD
CodeEditingAction 1639218641344 Game.java ADD int BonusThrow FIELD
CodeEditingAction 1639218691142 Game.java CHANGE Game.java CLASS
EditAction 1639218691180 Game.java 2548 9 9 0
EditAction 1639218691186 GameTest.java 4332 8 97 8
TestPassAction 1639218691682 GameTest.java OK
EditAction 1639218692229 Game.java 2548 9 9 0
CodeEditingAction 1639218793551 Game.java RENAME BonusThrow=>int bonusThrow FIELD
CodeEditingAction 1639218801434 Game.java ADD Game.java CLASS
CodeEditingAction 1639218818481 Game.java CHANGE Game.java CLASS
EditAction 1639218818514 Game.java 2548 9 9 0
EditAction 1639218818527 GameTest.java 4332 8 97 8
TestPassAction 1639218819001 GameTest.java OK
EditAction 1639218819621 Game.java 2548 9 9 0
TestCreationAction 1639218862103 GameTest.java ADD void testCalculateScoreWithSpareAsTheLastFrame()/2 METHOD ADD void testCalculateScoreWithSpareAsTheLastFrame()/2 METHOD
TestCreationAction 1639218867611 GameTest.java RENAME testCalculateScoreWithSpareAsTheLastFrame()/2=>void testCalculateScoreWithStrikeAsTheLastFrame() METHOD RENAME testCalculateScoreWithSpareAsTheLastFrame()/2=>void testCalculateScoreWithStrikeAsTheLastFrame() METHOD
TestCreationAction 1639218917714 GameTest.java CHANGE GameTest.java CLASS CHANGE GameTest.java CLASS
EditAction 1639218917715 GameTest.java 4870 9 109 9
EditAction 1639218917749 GameTest.java 4870 9 109 9
TestFailureAction 1639218918227 GameTest.java FAIL
EditAction 1639218918440 GameTest.java 4870 9 109 9
CodeEditingAction 1639219045390 Game.java RENAME bonusThrow=>int FirstbonusThrow FIELD
CodeEditingAction 1639219053407 Game.java ADD int FirstbonusThrow/2 FIELD
CodeEditingAction 1639219076952 Game.java RENAME FirstbonusThrow=>int FirstBonusThrow FIELD
CodeEditingAction 1639219082467 Game.java ADD int SecondBonusThrow FIELD
CodeEditingAction 1639219115346 Game.java CHANGE Game.java CLASS
EditAction 1639219115385 Game.java 2793 9 10 0
EditAction 1639219115390 GameTest.java 4870 9 109 9
TestFailureAction 1639219115882 GameTest.java FAIL
EditAction 1639219116437 Game.java 2793 9 10 0
EditAction 1639219163780 Game.java 2793 9 10 0
EditAction 1639219163785 Game.java 2793 9 10 0
EditAction 1639219163892 Game.java 2793 9 10 0
EditAction 1639219164584 Game.java 2793 9 10 0
EditAction 1639219164589 Game.java 2793 9 10 0
EditAction 1639219164900 Game.java 2793 9 10 0
EditAction 1639219166614 Game.java 2793 9 10 0
EditAction 1639219166621 Game.java 2793 9 10 0
EditAction 1639219166728 Game.java 2793 9 10 0
EditAction 1639219167739 Game.java 2793 9 10 0
EditAction 1639219167745 Game.java 2793 9 10 0
EditAction 1639219167851 Game.java 2793 9 10 0
EditAction 1639219174251 Game.java 2793 9 10 0
EditAction 1639219174257 Game.java 2793 9 10 0
EditAction 1639219174412 Game.java 2793 9 10 0
EditAction 1639219178007 Game.java 2793 9 10 0
EditAction 1639219178014 Game.java 2793 9 10 0
EditAction 1639219178021 Game.java 2793 9 10 0
EditAction 1639219178028 Game.java 2793 9 10 0
EditAction 1639219178034 Game.java 2793 9 10 0
EditAction 1639219178440 Game.java 2793 9 10 0
TestPassAction 1639219253377 GameTest.java OK
EditAction 1639219253380 Game.java 2793 9 10 0
EditAction 1639219253388 Game.java 2793 9 10 0
EditAction 1639219253394 Game.java 2793 9 10 0
EditAction 1639219253531 Game.java 2793 9 10 0
EditAction 1639219260162 Game.java 2793 9 10 0
EditAction 1639219260168 Game.java 2793 9 10 0
EditAction 1639219260174 Game.java 2793 9 10 0
EditAction 1639219260180 Game.java 2793 9 10 0
EditAction 1639219260186 Game.java 2793 9 10 0
EditAction 1639219260599 Game.java 2793 9 10 0
TestFailureAction 1639219268003 GameTest.java FAIL
EditAction 1639219268005 Game.java 2793 9 10 0
EditAction 1639219268011 Game.java 2793 9 10 0
EditAction 1639219268016 Game.java 2793 9 10 0
EditAction 1639219268021 Game.java 2793 9 10 0
EditAction 1639219268026 Game.java 2793 9 10 0
EditAction 1639219268134 Game.java 2793 9 10 0
EditAction 1639219272961 Game.java 2793 9 10 0
EditAction 1639219272967 Game.java 2793 9 10 0
EditAction 1639219272974 Game.java 2793 9 10 0
EditAction 1639219272979 Game.java 2793 9 10 0
EditAction 1639219272985 Game.java 2793 9 10 0
EditAction 1639219273434 Game.java 2793 9 10 0
TestFailureAction 1639219292200 GameTest.java FAIL
EditAction 1639219292203 Game.java 2793 9 10 0
EditAction 1639219292209 Game.java 2793 9 10 0
EditAction 1639219292215 Game.java 2793 9 10 0
EditAction 1639219292221 Game.java 2793 9 10 0
EditAction 1639219292227 Game.java 2793 9 10 0
EditAction 1639219292383 Game.java 2793 9 10 0
EditAction 1639219301706 Game.java 2793 9 10 0
EditAction 1639219301711 Game.java 2793 9 10 0
EditAction 1639219301867 Game.java 2793 9 10 0
TestFailureAction 1639219304931 GameTest.java FAIL
EditAction 1639219309477 Game.java 2793 9 10 0
EditAction 1639219309483 Game.java 2793 9 10 0
EditAction 1639219309489 Game.java 2793 9 10 0
EditAction 1639219309496 Game.java 2793 9 10 0
EditAction 1639219309502 Game.java 2793 9 10 0
EditAction 1639219309509 Game.java 2793 9 10 0
EditAction 1639219309996 Game.java 2793 9 10 0
TestFailureAction 1639219383852 GameTest.java FAIL
EditAction 1639219383854 Game.java 2793 9 10 0
EditAction 1639219383860 Game.java 2793 9 10 0
EditAction 1639219383866 Game.java 2793 9 10 0
EditAction 1639219383872 Game.java 2793 9 10 0
EditAction 1639219383877 Game.java 2793 9 10 0
EditAction 1639219383885 Game.java 2793 9 10 0
EditAction 1639219384044 Game.java 2793 9 10 0
TestEditingAction 1639219395073 GameTest.java CHANGE void testCalculateScoreWithSpareAsTheLastFrame() METHOD CHANGE void testCalculateScoreWithSpareAsTheLastFrame() METHOD
TestEditingAction 1639219396581 GameTest.java CHANGE void testCalculateScoreWithSpareAsTheLastFrame() METHOD CHANGE void testCalculateScoreWithSpareAsTheLastFrame() METHOD
TestEditingAction 1639219400339 GameTest.java ADD import org.junit.Ignore IMPORT ADD import org.junit.Ignore IMPORT
TestEditingAction 1639219405100 GameTest.java CHANGE void testCalculateScoreWithMultipeSpare() METHOD CHANGE void testCalculateScoreWithMultipeSpare() METHOD
TestEditingAction 1639219407111 GameTest.java CHANGE void testCalculateScoreWithMultipleStrike() METHOD CHANGE void testCalculateScoreWithMultipleStrike() METHOD
TestEditingAction 1639219409120 GameTest.java CHANGE void testCalculateScoreWithStrikeFollowedBySpare() METHOD CHANGE void testCalculateScoreWithStrikeFollowedBySpare() METHOD
TestEditingAction 1639219411131 GameTest.java CHANGE void testCalculateScoreWithStrike() METHOD CHANGE void testCalculateScoreWithStrike() METHOD
TestEditingAction 1639219413139 GameTest.java CHANGE void testCalculateScoreWithSpare() METHOD CHANGE void testCalculateScoreWithSpare() METHOD
TestEditingAction 1639219414647 GameTest.java CHANGE void testCalculateScore() METHOD CHANGE void testCalculateScore() METHOD
TestEditingAction 1639219416156 GameTest.java CHANGE void testGameReturnFirstFrame() METHOD CHANGE void testGameReturnFirstFrame() METHOD
TestEditingAction 1639219416173 GameTest.java CHANGE GameTest.java CLASS CHANGE GameTest.java CLASS
EditAction 1639219416339 GameTest.java 4953 9 109 9
EditAction 1639219416944 GameTest.java 4953 9 109 9
EditAction 1639219440827 Game.java 2793 9 10 0
EditAction 1639219440833 Game.java 2793 9 10 0
EditAction 1639219440838 Game.java 2793 9 10 0
EditAction 1639219440843 Game.java 2793 9 10 0
EditAction 1639219440848 Game.java 2793 9 10 0
EditAction 1639219440862 Game.java 2793 9 10 0
EditAction 1639219441019 Game.java 2793 9 10 0
EditAction 1639219441316 Game.java 2793 9 10 0
EditAction 1639219441321 Game.java 2793 9 10 0
EditAction 1639219441326 Game.java 2793 9 10 0
EditAction 1639219441331 Game.java 2793 9 10 0
EditAction 1639219441344 Game.java 2793 9 10 0
EditAction 1639219441812 Game.java 2793 9 10 0
EditAction 1639219441818 Game.java 2793 9 10 0
EditAction 1639219441823 Game.java 2793 9 10 0
EditAction 1639219441828 Game.java 2793 9 10 0
EditAction 1639219441832 Game.java 2793 9 10 0
EditAction 1639219441846 Game.java 2793 9 10 0
EditAction 1639219442027 Game.java 2793 9 10 0
EditAction 1639219442620 Game.java 2793 9 10 0
EditAction 1639219442626 Game.java 2793 9 10 0
EditAction 1639219442632 Game.java 2793 9 10 0
EditAction 1639219442636 Game.java 2793 9 10 0
EditAction 1639219442651 Game.java 2793 9 10 0
EditAction 1639219443033 Game.java 2793 9 10 0
EditAction 1639219444127 Game.java 2793 9 10 0
EditAction 1639219444140 Game.java 2793 9 10 0
EditAction 1639219444145 Game.java 2793 9 10 0
EditAction 1639219444150 Game.java 2793 9 10 0
EditAction 1639219444164 Game.java 2793 9 10 0
EditAction 1639219444270 Game.java 2793 9 10 0
EditAction 1639219459359 Game.java 2793 9 10 0
EditAction 1639219459365 Game.java 2793 9 10 0
EditAction 1639219459369 Game.java 2793 9 10 0
EditAction 1639219459374 Game.java 2793 9 10 0
EditAction 1639219459388 Game.java 2793 9 10 0
CodeEditingAction 1639219542574 Game.java CHANGE Game.java CLASS
EditAction 1639219542575 Game.java 2792 9 10 0
EditAction 1639219542602 Game.java 2792 9 10 0
TestFailureAction 1639219543130 GameTest.java FAIL
EditAction 1639219543519 Game.java 2792 9 10 0
EditAction 1639219596441 Game.java 2792 9 10 0
EditAction 1639219596446 Game.java 2792 9 10 0
EditAction 1639219596553 Game.java 2792 9 10 0
EditAction 1639219598554 Game.java 2792 9 10 0
EditAction 1639219598559 Game.java 2792 9 10 0
EditAction 1639219598666 Game.java 2792 9 10 0
EditAction 1639219599470 Game.java 2792 9 10 0
EditAction 1639219599475 Game.java 2792 9 10 0
EditAction 1639219599672 Game.java 2792 9 10 0
EditAction 1639219601359 Game.java 2792 9 10 0
EditAction 1639219601364 Game.java 2792 9 10 0
EditAction 1639219601471 Game.java 2792 9 10 0
EditAction 1639219603832 Game.java 2792 9 10 0
EditAction 1639219603837 Game.java 2792 9 10 0
EditAction 1639219603943 Game.java 2792 9 10 0
EditAction 1639219608633 Game.java 2792 9 10 0
EditAction 1639219608638 Game.java 2792 9 10 0
EditAction 1639219608795 Game.java 2792 9 10 0
TestFailureAction 1639219709696 GameTest.java FAIL
EditAction 1639219709699 Game.java 2792 9 10 0
EditAction 1639219709706 Game.java 2792 9 10 0
EditAction 1639219709712 Game.java 2792 9 10 0
EditAction 1639219709718 Game.java 2792 9 10 0
EditAction 1639219709724 Game.java 2792 9 10 0
EditAction 1639219709730 Game.java 2792 9 10 0
EditAction 1639219709841 Game.java 2792 9 10 0
TestEditingAction 1639219732628 GameTest.java CHANGE GameTest.java CLASS CHANGE GameTest.java CLASS
EditAction 1639219732654 GameTest.java 4963 1 12 1
EditAction 1639219733322 Game.java 2792 9 10 0
EditAction 1639219733328 Game.java 2792 9 10 0
EditAction 1639219733334 Game.java 2792 9 10 0
EditAction 1639219733340 Game.java 2792 9 10 0
EditAction 1639219733345 Game.java 2792 9 10 0
EditAction 1639219733351 Game.java 2792 9 10 0
EditAction 1639219733415 GameTest.java 4963 1 12 1
EditAction 1639219733778 Game.java 2792 9 10 0
TestFailureAction 1639219863468 GameTest.java FAIL
EditAction 1639219863470 Game.java 2792 9 10 0
EditAction 1639219863475 Game.java 2792 9 10 0
EditAction 1639219863481 Game.java 2792 9 10 0
EditAction 1639219863486 Game.java 2792 9 10 0
EditAction 1639219863491 Game.java 2792 9 10 0
EditAction 1639219863496 Game.java 2792 9 10 0
EditAction 1639219863603 Game.java 2792 9 10 0
EditAction 1639219917818 Game.java 2792 9 10 0
EditAction 1639219917823 Game.java 2792 9 10 0
EditAction 1639219917828 Game.java 2792 9 10 0
EditAction 1639219917833 Game.java 2792 9 10 0
EditAction 1639219917852 Game.java 2792 9 10 0
EditAction 1639219917959 Game.java 2792 9 10 0
EditAction 1639219919453 Game.java 2792 9 10 0
EditAction 1639219919458 Game.java 2792 9 10 0
EditAction 1639219919565 Game.java 2792 9 10 0
CodeEditingAction 1639219922958 Game.java CHANGE Game.java CLASS
EditAction 1639219922987 Game.java 2820 9 10 0
EditAction 1639219923697 Game.java 2820 9 10 0
EditAction 1639219923704 Game.java 2820 9 10 0
EditAction 1639219923710 Game.java 2820 9 10 0
EditAction 1639219923717 Game.java 2820 9 10 0
EditAction 1639219923723 Game.java 2820 9 10 0
EditAction 1639219923730 Game.java 2820 9 10 0
EditAction 1639219923911 Game.java 2820 9 10 0
EditAction 1639219924158 Game.java 2820 9 10 0
TestFailureAction 1639219927459 GameTest.java FAIL
EditAction 1639219927461 Game.java 2820 9 10 0
EditAction 1639219927466 Game.java 2820 9 10 0
EditAction 1639219927471 Game.java 2820 9 10 0
EditAction 1639219927476 Game.java 2820 9 10 0
EditAction 1639219927484 Game.java 2820 9 10 0
EditAction 1639219927489 Game.java 2820 9 10 0
EditAction 1639219927614 Game.java 2820 9 10 0
EditAction 1639219930941 Game.java 2820 9 10 0
EditAction 1639219930946 Game.java 2820 9 10 0
EditAction 1639219930959 Game.java 2820 9 10 0
EditAction 1639219930964 Game.java 2820 9 10 0
EditAction 1639219930969 Game.java 2820 9 10 0
EditAction 1639219930975 Game.java 2820 9 10 0
EditAction 1639219931444 Game.java 2820 9 10 0
TestFailureAction 1639219947101 GameTest.java FAIL
EditAction 1639219947103 Game.java 2820 9 10 0
EditAction 1639219947109 Game.java 2820 9 10 0
EditAction 1639219947114 Game.java 2820 9 10 0
EditAction 1639219947119 Game.java 2820 9 10 0
EditAction 1639219947124 Game.java 2820 9 10 0
EditAction 1639219947129 Game.java 2820 9 10 0
EditAction 1639219947237 Game.java 2820 9 10 0
EditAction 1639219949122 Game.java 2820 9 10 0
EditAction 1639219949127 Game.java 2820 9 10 0
EditAction 1639219949233 Game.java 2820 9 10 0
EditAction 1639219952773 Game.java 2820 9 10 0
EditAction 1639219952778 Game.java 2820 9 10 0
EditAction 1639219952934 Game.java 2820 9 10 0
TestFailureAction 1639219957327 GameTest.java FAIL
EditAction 1639219960022 Game.java 2820 9 10 0
EditAction 1639219960028 Game.java 2820 9 10 0
EditAction 1639219960033 Game.java 2820 9 10 0
EditAction 1639219960039 Game.java 2820 9 10 0
EditAction 1639219960045 Game.java 2820 9 10 0
EditAction 1639219960051 Game.java 2820 9 10 0
EditAction 1639219960057 Game.java 2820 9 10 0
EditAction 1639219960063 Game.java 2820 9 10 0
EditAction 1639219960541 Game.java 2820 9 10 0
TestFailureAction 1639219993655 GameTest.java FAIL
EditAction 1639219993657 Game.java 2820 9 10 0
EditAction 1639219993670 Game.java 2820 9 10 0
EditAction 1639219993677 Game.java 2820 9 10 0
EditAction 1639219993684 Game.java 2820 9 10 0
EditAction 1639219993690 Game.java 2820 9 10 0
EditAction 1639219993695 Game.java 2820 9 10 0
EditAction 1639219993700 Game.java 2820 9 10 0
EditAction 1639219993705 Game.java 2820 9 10 0
EditAction 1639219993819 Game.java 2820 9 10 0
CodeEditingAction 1639220003975 Game.java ADD Game.java CLASS
EditAction 1639220017838 Game.java 2820 9 10 0
EditAction 1639220017843 Game.java 2820 9 10 0
EditAction 1639220017848 Game.java 2820 9 10 0
EditAction 1639220017866 Game.java 2820 9 10 0
EditAction 1639220017973 Game.java 2820 9 10 0
EditAction 1639220018789 Game.java 2820 9 10 0
EditAction 1639220018794 Game.java 2820 9 10 0
EditAction 1639220019030 Game.java 2820 9 10 0
EditAction 1639220020079 Game.java 2820 9 10 0
EditAction 1639220020084 Game.java 2820 9 10 0
EditAction 1639220020089 Game.java 2820 9 10 0
EditAction 1639220020105 Game.java 2820 9 10 0
EditAction 1639220020213 Game.java 2820 9 10 0
CodeEditingAction 1639220025190 Game.java CHANGE Game.java CLASS
EditAction 1639220025218 Game.java 2853 9 10 0
EditAction 1639220025976 Game.java 2853 9 10 0
EditAction 1639220025983 Game.java 2853 9 10 0
EditAction 1639220025990 Game.java 2853 9 10 0
EditAction 1639220026012 Game.java 2853 9 10 0
EditAction 1639220026019 Game.java 2853 9 10 0
EditAction 1639220026030 Game.java 2853 9 10 0
EditAction 1639220026038 Game.java 2853 9 10 0
EditAction 1639220026178 Game.java 2853 9 10 0
EditAction 1639220026370 Game.java 2853 9 10 0
CodeEditingAction 1639220077211 Game.java CHANGE Game.java CLASS
EditAction 1639220077288 Game.java 2855 9 10 0
EditAction 1639220077320 Game.java 2855 9 10 0
EditAction 1639220077330 Game.java 2855 9 10 0
EditAction 1639220077337 Game.java 2855 9 10 0
EditAction 1639220077351 Game.java 2855 9 10 0
EditAction 1639220077361 Game.java 2855 9 10 0
EditAction 1639220077375 Game.java 2855 9 10 0
EditAction 1639220077383 Game.java 2855 9 10 0
EditAction 1639220077396 Game.java 2855 9 10 0
EditAction 1639220077403 Game.java 2855 9 10 0
EditAction 1639220077413 Game.java 2855 9 10 0
EditAction 1639220077420 Game.java 2855 9 10 0
EditAction 1639220077430 Game.java 2855 9 10 0
EditAction 1639220077438 Game.java 2855 9 10 0
EditAction 1639220077448 Game.java 2855 9 10 0
EditAction 1639220077580 Game.java 2855 9 10 0
TestFailureAction 1639220077972 GameTest.java FAIL
EditAction 1639220078395 Game.java 2855 9 10 0
CodeEditingAction 1639220106542 Game.java CHANGE Game.java CLASS
EditAction 1639220106559 Game.java 2855 9 10 0
EditAction 1639220106583 Game.java 2855 9 10 0
EditAction 1639220106594 Game.java 2855 9 10 0
EditAction 1639220106600 Game.java 2855 9 10 0
EditAction 1639220106608 Game.java 2855 9 10 0
EditAction 1639220106614 Game.java 2855 9 10 0
EditAction 1639220106623 Game.java 2855 9 10 0
EditAction 1639220106629 Game.java 2855 9 10 0
EditAction 1639220106637 Game.java 2855 9 10 0
EditAction 1639220106643 Game.java 2855 9 10 0
EditAction 1639220106650 Game.java 2855 9 10 0
EditAction 1639220106656 Game.java 2855 9 10 0
EditAction 1639220106664 Game.java 2855 9 10 0
EditAction 1639220106669 Game.java 2855 9 10 0
EditAction 1639220106678 Game.java 2855 9 10 0
EditAction 1639220107526 Game.java 2855 9 10 0
EditAction 1639220107641 Game.java 2855 9 10 0
TestPassAction 1639220109737 GameTest.java OK
CodeEditingAction 1639220124635 Game.java CHANGE Game.java CLASS
EditAction 1639220124711 Game.java 2788 9 10 0
EditAction 1639220124741 Game.java 2788 9 10 0
EditAction 1639220124751 Game.java 2788 9 10 0
EditAction 1639220124759 Game.java 2788 9 10 0
EditAction 1639220124767 Game.java 2788 9 10 0
EditAction 1639220124776 Game.java 2788 9 10 0
EditAction 1639220124787 Game.java 2788 9 10 0
EditAction 1639220124945 Game.java 2788 9 10 0
TestPassAction 1639220125198 GameTest.java OK
EditAction 1639220125513 Game.java 2788 9 10 0
CodeEditingAction 1639220233637 Game.java ADD void setBonusSpare(int) METHOD
CodeEditingAction 1639220233640 Game.java CHANGE Game.java CLASS
EditAction 1639220233885 Game.java 2853 10 11 0
EditAction 1639220233890 GameTest.java 4963 1 12 1
EditAction 1639220234538 Game.java 2853 10 11 0
CodeEditingAction 1639220343233 Game.java ADD void setBonusThrow(int) METHOD
CodeEditingAction 1639220343237 Game.java CHANGE Game.java CLASS
EditAction 1639220343406 Game.java 2936 11 14 0
EditAction 1639220343426 GameTest.java 4963 1 12 1
EditAction 1639220344190 Game.java 2936 11 14 0
CodeEditingAction 1639220355252 Game.java RENAME setBonusThrow(int)=>void setTwBonusThrow(int) METHOD
CodeEditingAction 1639220357279 Game.java RENAME setTwBonusThrow(int)=>void setTwoBonusThrow(int) METHOD
CodeEditingAction 1639220359392 Game.java ADD Game.java CLASS
CodeEditingAction 1639220373518 Game.java ADD Game.java CLASS
CodeEditingAction 1639220406685 Game.java ADD void setOneBonusThrow(int) METHOD
CodeEditingAction 1639220446396 Game.java CHANGE Game.java CLASS
EditAction 1639220446476 Game.java 3030 12 16 0
EditAction 1639220446482 GameTest.java 4963 1 12 1
EditAction 1639220447274 Game.java 3030 12 16 0
TestPassAction 1639220447291 GameTest.java OK
TestCreationAction 1639220571079 GameTest.java ADD void testGameReturnFirstFrame() METHOD ADD void testGameReturnFirstFrame() METHOD
TestCreationAction 1639220571079 GameTest.java ADD void testCalculateScore() METHOD ADD void testCalculateScore() METHOD
TestCreationAction 1639220571079 GameTest.java ADD void testCalculateScoreWithSpare() METHOD ADD void testCalculateScoreWithSpare() METHOD
TestCreationAction 1639220571079 GameTest.java ADD void testCalculateScoreWithStrike() METHOD ADD void testCalculateScoreWithStrike() METHOD
TestCreationAction 1639220571079 GameTest.java ADD void testCalculateScoreWithStrikeFollowedBySpare() METHOD ADD void testCalculateScoreWithStrikeFollowedBySpare() METHOD
TestCreationAction 1639220571079 GameTest.java ADD void testCalculateScoreWithMultipleStrike() METHOD ADD void testCalculateScoreWithMultipleStrike() METHOD
TestCreationAction 1639220571079 GameTest.java ADD void testCalculateScoreWithMultipeSpare() METHOD ADD void testCalculateScoreWithMultipeSpare() METHOD
TestCreationAction 1639220571080 GameTest.java ADD void testCalculateScoreWithSpareAsTheLastFrame() METHOD ADD void testCalculateScoreWithSpareAsTheLastFrame() METHOD
TestCreationAction 1639220571080 GameTest.java ADD void testCalculateScoreWithStrikeAsTheLastFrame() METHOD ADD void testCalculateScoreWithStrikeAsTheLastFrame() METHOD
TestCreationAction 1639220574098 GameTest.java CHANGE void testGameReturnFirstFrame() METHOD CHANGE void testGameReturnFirstFrame() METHOD
TestCreationAction 1639220576107 GameTest.java CHANGE void testCalculateScore() METHOD CHANGE void testCalculateScore() METHOD
TestCreationAction 1639220578116 GameTest.java CHANGE void testCalculateScoreWithSpare() METHOD CHANGE void testCalculateScoreWithSpare() METHOD
TestCreationAction 1639220581624 GameTest.java CHANGE void testCalculateScoreWithStrike() METHOD CHANGE void testCalculateScoreWithStrike() METHOD
TestCreationAction 1639220584134 GameTest.java CHANGE void testCalculateScoreWithStrikeFollowedBySpare() METHOD CHANGE void testCalculateScoreWithStrikeFollowedBySpare() METHOD
TestCreationAction 1639220587143 GameTest.java CHANGE void testCalculateScoreWithMultipleStrike() METHOD CHANGE void testCalculateScoreWithMultipleStrike() METHOD
TestCreationAction 1639220590652 GameTest.java CHANGE void testCalculateScoreWithMultipeSpare() METHOD CHANGE void testCalculateScoreWithMultipeSpare() METHOD
TestCreationAction 1639220592161 GameTest.java CHANGE void testCalculateScoreWithSpareAsTheLastFrame() METHOD CHANGE void testCalculateScoreWithSpareAsTheLastFrame() METHOD
TestCreationAction 1639220595705 GameTest.java CHANGE GameTest.java CLASS CHANGE GameTest.java CLASS
EditAction 1639220595792 GameTest.java 4888 9 109 9
TestPassAction 1639220596279 GameTest.java OK
EditAction 1639220596506 GameTest.java 4888 9 109 9
TestCreationAction 1639220875396 GameTest.java ADD void testCalculateScoreWithStrikeAsTheLastFrame()/2 METHOD ADD void testCalculateScoreWithStrikeAsTheLastFrame()/2 METHOD
CodeEditingAction 1639221023712 Game.java CHANGE Game.java CLASS
TestEditingAction 1639221023725 GameTest.java CHANGE GameTest.java CLASS CHANGE GameTest.java CLASS
EditAction 1639221023805 Game.java 2951 12 13 0
EditAction 1639221023810 GameTest.java 4984 9 112 9
TestPassAction 1639221024314 GameTest.java OK
EditAction 1639221024698 Game.java 2951 12 13 0
EditAction 1639221024704 GameTest.java 4984 9 112 9
CodeEditingAction 1639221249208 Game.java ADD void setTwoBonusThrow(int) METHOD
CodeEditingAction 1639221249209 Game.java ADD void setBonusSpare(int) METHOD
CodeEditingAction 1639221249209 Game.java ADD void setBonusStrike(int) METHOD
CodeEditingAction 1639221309611 Game.java CHANGE Game.java CLASS
EditAction 1639221309647 Game.java 2725 10 11 0
EditAction 1639221309652 GameTest.java 4984 9 112 9
TestPassAction 1639221310135 GameTest.java OK
EditAction 1639221310601 Game.java 2725 10 11 0
TestCreationAction 1639221417413 GameTest.java ADD void testCalculateScoreWithStrikeAsTheLastFrame()/2 METHOD ADD void testCalculateScoreWithStrikeAsTheLastFrame()/2 METHOD
TestCreationAction 1639221442940 GameTest.java RENAME testCalculateScoreWithStrikeAsTheLastFrame()/2=>void testCalculateScoreAll() METHOD RENAME testCalculateScoreWithStrikeAsTheLastFrame()/2=>void testCalculateScoreAll() METHOD
TestCreationAction 1639221443948 GameTest.java RENAME testCalculateScoreAll()=>void testCalculateScoreAllS() METHOD RENAME testCalculateScoreAll()=>void testCalculateScoreAllS() METHOD
TestCreationAction 1639221444966 GameTest.java RENAME testCalculateScoreAllS()=>void testCalculateScoreA() METHOD RENAME testCalculateScoreAllS()=>void testCalculateScoreA() METHOD
TestCreationAction 1639221447978 GameTest.java RENAME testCalculateScoreA()=>void testCalculateScoreBest() METHOD RENAME testCalculateScoreA()=>void testCalculateScoreBest() METHOD
TestCreationAction 1639221453489 GameTest.java RENAME testCalculateScoreBest()=>void testCalculateScore()/2 METHOD RENAME testCalculateScoreBest()=>void testCalculateScore()/2 METHOD
TestCreationAction 1639221483027 GameTest.java RENAME testCalculateScore()/2=>void testCalculateScoreLikeBest() METHOD RENAME testCalculateScore()/2=>void testCalculateScoreLikeBest() METHOD
TestCreationAction 1639221485537 GameTest.java RENAME testCalculateScoreLikeBest()=>void testCalculateScoreLikeBestScore() METHOD RENAME testCalculateScoreLikeBest()=>void testCalculateScoreLikeBestScore() METHOD
TestCreationAction 1639221525999 GameTest.java CHANGE GameTest.java CLASS CHANGE GameTest.java CLASS
EditAction 1639221526000 GameTest.java 5551 10 126 10
EditAction 1639221526170 GameTest.java 5551 10 126 10
EditAction 1639221526885 GameTest.java 5551 10 126 10
CodeEditingAction 1639221531965 Game.java CHANGE Game.java CLASS
EditAction 1639221531966 Game.java 2720 10 11 0
EditAction 1639221531984 Game.java 2720 10 11 0
TestFailureAction 1639221532475 GameTest.java FAIL
EditAction 1639221532839 Game.java 2720 10 11 0
CodeEditingAction 1639221956043 Game.java CHANGE Game.java CLASS
EditAction 1639221956044 Game.java 2741 10 11 0
EditAction 1639221956072 Game.java 2741 10 11 0
TestPassAction 1639221956543 GameTest.java OK
EditAction 1639221956784 Game.java 2741 10 11 0
CodeEditingAction 1639222021671 Game.java ADD void setBonusSpare(int) METHOD
CodeEditingAction 1639222021671 Game.java ADD void setBonusStrike(int) METHOD
CodeEditingAction 1639222250435 Game.java CHANGE Game.java CLASS
EditAction 1639222250436 Game.java 2963 10 11 0
EditAction 1639222250464 Game.java 2963 10 11 0
TestPassAction 1639222250954 GameTest.java OK
EditAction 1639222251165 Game.java 2963 10 11 0
